<svg width="325" height="77" viewBox="0 0 325 77" fill="none" xmlns="http://www.w3.org/2000/svg" preserveAspectRatio="none">
<path d="M324 26.2475C318.891 11.5535 304.847 1 288.323 1H38.7369C17.8954 1 1 17.7893 1 38.5C1 59.2107 17.8954 76 38.7369 76H288.323C304.847 76 318.891 65.4465 324 50.7525" stroke="#95C132" stroke-width="2"/>
</svg>
