<svg width="194" height="196" viewBox="0 0 194 196" fill="none" xmlns="http://www.w3.org/2000/svg" preserveAspectRatio="none">
<path d="M192.377 75.5C182.23 32.7782 143.826 1 98 1C44.4284 1 1 44.4284 1 98C1 151.572 44.4284 195 98 195C143.826 195 182.23 163.222 192.377 120.5" stroke="#95C132" stroke-width="2"/>
</svg>
